﻿
DisplayName "Rostrum Village"



EVENT   1
 PAGE   1
  250(bytes(0x04,0x08,0x6f,0x3a,0x0c,0x52,0x50,0x47,0x3a,0x3a,0x53,0x45,0x08,0x3a,0x0a,0x40,0x6e,0x61,0x6d,0x65,0x49,0x22,0x0a,0x4f,0x70,0x65,0x6e,0x31,0x06,0x3a,0x06,0x45,0x54,0x3a,0x0b,0x40,0x70,0x69,0x74,0x63,0x68,0x69,0x69,0x3a,0x0c,0x40,0x76,0x6f,0x6c,0x75,0x6d,0x65,0x69,0x55))
  205(0,bytes(0x04,0x08,0x6f,0x3a,0x13,0x52,0x50,0x47,0x3a,0x3a,0x4d,0x6f,0x76,0x65,0x52,0x6f,0x75,0x74,0x65,0x09,0x3a,0x0c,0x40,0x72,0x65,0x70,0x65,0x61,0x74,0x46,0x3a,0x0f,0x40,0x73,0x6b,0x69,0x70,0x70,0x61,0x62,0x6c,0x65,0x46,0x3a,0x0a,0x40,0x77,0x61,0x69,0x74,0x54,0x3a,0x0a,0x40,0x6c,0x69,0x73,0x74,0x5b,0x0c,0x6f,0x3a,0x15,0x52,0x50,0x47,0x3a,0x3a,0x4d,0x6f,0x76,0x65,0x43,0x6f,0x6d,0x6d,0x61,0x6e,0x64,0x07,0x3a,0x0a,0x40,0x63,0x6f,0x64,0x65,0x69,0x16,0x3a,0x10,0x40,0x70,0x61,0x72,0x61,0x6d,0x65,0x74,0x65,0x72,0x73,0x5b,0x00,0x6f,0x3b,0x0a,0x07,0x3b,0x0b,0x69,0x14,0x3b,0x0c,0x5b,0x06,0x69,0x08,0x6f,0x3b,0x0a,0x07,0x3b,0x0b,0x69,0x17,0x3b,0x0c,0x5b,0x00,0x6f,0x3b,0x0a,0x07,0x3b,0x0b,0x69,0x14,0x3b,0x0c,0x5b,0x06,0x69,0x08,0x6f,0x3b,0x0a,0x07,0x3b,0x0b,0x69,0x18,0x3b,0x0c,0x5b,0x00,0x6f,0x3b,0x0a,0x07,0x3b,0x0b,0x69,0x2a,0x3b,0x0c,0x5b,0x00,0x6f,0x3b,0x0a,0x07,0x3b,0x0b,0x69,0x00,0x3b,0x0c,0x5b,0x00))
  205(-1,bytes(0x04,0x08,0x6f,0x3a,0x13,0x52,0x50,0x47,0x3a,0x3a,0x4d,0x6f,0x76,0x65,0x52,0x6f,0x75,0x74,0x65,0x09,0x3a,0x0c,0x40,0x72,0x65,0x70,0x65,0x61,0x74,0x46,0x3a,0x0f,0x40,0x73,0x6b,0x69,0x70,0x70,0x61,0x62,0x6c,0x65,0x54,0x3a,0x0a,0x40,0x77,0x61,0x69,0x74,0x54,0x3a,0x0a,0x40,0x6c,0x69,0x73,0x74,0x5b,0x07,0x6f,0x3a,0x15,0x52,0x50,0x47,0x3a,0x3a,0x4d,0x6f,0x76,0x65,0x43,0x6f,0x6d,0x6d,0x61,0x6e,0x64,0x07,0x3a,0x0a,0x40,0x63,0x6f,0x64,0x65,0x69,0x11,0x3a,0x10,0x40,0x70,0x61,0x72,0x61,0x6d,0x65,0x74,0x65,0x72,0x73,0x5b,0x00,0x6f,0x3b,0x0a,0x07,0x3b,0x0b,0x69,0x00,0x3b,0x0c,0x5b,0x00))
  250(bytes(0x04,0x08,0x6f,0x3a,0x0c,0x52,0x50,0x47,0x3a,0x3a,0x53,0x45,0x08,0x3a,0x0a,0x40,0x6e,0x61,0x6d,0x65,0x49,0x22,0x09,0x4d,0x6f,0x76,0x65,0x06,0x3a,0x06,0x45,0x54,0x3a,0x0b,0x40,0x70,0x69,0x74,0x63,0x68,0x69,0x69,0x3a,0x0c,0x40,0x76,0x6f,0x6c,0x75,0x6d,0x65,0x69,0x55))
  TeleportPlayer(0,311,8,16,0,0)
  0()



EVENT   2
 PAGE   1
  250(bytes(0x04,0x08,0x6f,0x3a,0x0c,0x52,0x50,0x47,0x3a,0x3a,0x53,0x45,0x08,0x3a,0x0a,0x40,0x6e,0x61,0x6d,0x65,0x49,0x22,0x0a,0x4f,0x70,0x65,0x6e,0x31,0x06,0x3a,0x06,0x45,0x54,0x3a,0x0b,0x40,0x70,0x69,0x74,0x63,0x68,0x69,0x69,0x3a,0x0c,0x40,0x76,0x6f,0x6c,0x75,0x6d,0x65,0x69,0x55))
  205(0,bytes(0x04,0x08,0x6f,0x3a,0x13,0x52,0x50,0x47,0x3a,0x3a,0x4d,0x6f,0x76,0x65,0x52,0x6f,0x75,0x74,0x65,0x09,0x3a,0x0c,0x40,0x72,0x65,0x70,0x65,0x61,0x74,0x46,0x3a,0x0f,0x40,0x73,0x6b,0x69,0x70,0x70,0x61,0x62,0x6c,0x65,0x46,0x3a,0x0a,0x40,0x77,0x61,0x69,0x74,0x54,0x3a,0x0a,0x40,0x6c,0x69,0x73,0x74,0x5b,0x0c,0x6f,0x3a,0x15,0x52,0x50,0x47,0x3a,0x3a,0x4d,0x6f,0x76,0x65,0x43,0x6f,0x6d,0x6d,0x61,0x6e,0x64,0x07,0x3a,0x0a,0x40,0x63,0x6f,0x64,0x65,0x69,0x16,0x3a,0x10,0x40,0x70,0x61,0x72,0x61,0x6d,0x65,0x74,0x65,0x72,0x73,0x5b,0x00,0x6f,0x3b,0x0a,0x07,0x3b,0x0b,0x69,0x14,0x3b,0x0c,0x5b,0x06,0x69,0x08,0x6f,0x3b,0x0a,0x07,0x3b,0x0b,0x69,0x17,0x3b,0x0c,0x5b,0x00,0x6f,0x3b,0x0a,0x07,0x3b,0x0b,0x69,0x14,0x3b,0x0c,0x5b,0x06,0x69,0x08,0x6f,0x3b,0x0a,0x07,0x3b,0x0b,0x69,0x18,0x3b,0x0c,0x5b,0x00,0x6f,0x3b,0x0a,0x07,0x3b,0x0b,0x69,0x2a,0x3b,0x0c,0x5b,0x00,0x6f,0x3b,0x0a,0x07,0x3b,0x0b,0x69,0x00,0x3b,0x0c,0x5b,0x00))
  205(-1,bytes(0x04,0x08,0x6f,0x3a,0x13,0x52,0x50,0x47,0x3a,0x3a,0x4d,0x6f,0x76,0x65,0x52,0x6f,0x75,0x74,0x65,0x09,0x3a,0x0c,0x40,0x72,0x65,0x70,0x65,0x61,0x74,0x46,0x3a,0x0f,0x40,0x73,0x6b,0x69,0x70,0x70,0x61,0x62,0x6c,0x65,0x54,0x3a,0x0a,0x40,0x77,0x61,0x69,0x74,0x54,0x3a,0x0a,0x40,0x6c,0x69,0x73,0x74,0x5b,0x07,0x6f,0x3a,0x15,0x52,0x50,0x47,0x3a,0x3a,0x4d,0x6f,0x76,0x65,0x43,0x6f,0x6d,0x6d,0x61,0x6e,0x64,0x07,0x3a,0x0a,0x40,0x63,0x6f,0x64,0x65,0x69,0x11,0x3a,0x10,0x40,0x70,0x61,0x72,0x61,0x6d,0x65,0x74,0x65,0x72,0x73,0x5b,0x00,0x6f,0x3b,0x0a,0x07,0x3b,0x0b,0x69,0x00,0x3b,0x0c,0x5b,0x00))
  250(bytes(0x04,0x08,0x6f,0x3a,0x0c,0x52,0x50,0x47,0x3a,0x3a,0x53,0x45,0x08,0x3a,0x0a,0x40,0x6e,0x61,0x6d,0x65,0x49,0x22,0x09,0x4d,0x6f,0x76,0x65,0x06,0x3a,0x06,0x45,0x54,0x3a,0x0b,0x40,0x70,0x69,0x74,0x63,0x68,0x69,0x69,0x3a,0x0c,0x40,0x76,0x6f,0x6c,0x75,0x6d,0x65,0x69,0x55))
  TeleportPlayer(0,311,31,16,0,0)
  0()



EVENT   3
 PAGE   1
  250(bytes(0x04,0x08,0x6f,0x3a,0x0c,0x52,0x50,0x47,0x3a,0x3a,0x53,0x45,0x08,0x3a,0x0a,0x40,0x6e,0x61,0x6d,0x65,0x49,0x22,0x0a,0x4f,0x70,0x65,0x6e,0x31,0x06,0x3a,0x06,0x45,0x54,0x3a,0x0b,0x40,0x70,0x69,0x74,0x63,0x68,0x69,0x69,0x3a,0x0c,0x40,0x76,0x6f,0x6c,0x75,0x6d,0x65,0x69,0x55))
  205(0,bytes(0x04,0x08,0x6f,0x3a,0x13,0x52,0x50,0x47,0x3a,0x3a,0x4d,0x6f,0x76,0x65,0x52,0x6f,0x75,0x74,0x65,0x09,0x3a,0x0c,0x40,0x72,0x65,0x70,0x65,0x61,0x74,0x46,0x3a,0x0f,0x40,0x73,0x6b,0x69,0x70,0x70,0x61,0x62,0x6c,0x65,0x46,0x3a,0x0a,0x40,0x77,0x61,0x69,0x74,0x54,0x3a,0x0a,0x40,0x6c,0x69,0x73,0x74,0x5b,0x0c,0x6f,0x3a,0x15,0x52,0x50,0x47,0x3a,0x3a,0x4d,0x6f,0x76,0x65,0x43,0x6f,0x6d,0x6d,0x61,0x6e,0x64,0x07,0x3a,0x0a,0x40,0x63,0x6f,0x64,0x65,0x69,0x16,0x3a,0x10,0x40,0x70,0x61,0x72,0x61,0x6d,0x65,0x74,0x65,0x72,0x73,0x5b,0x00,0x6f,0x3b,0x0a,0x07,0x3b,0x0b,0x69,0x14,0x3b,0x0c,0x5b,0x06,0x69,0x08,0x6f,0x3b,0x0a,0x07,0x3b,0x0b,0x69,0x17,0x3b,0x0c,0x5b,0x00,0x6f,0x3b,0x0a,0x07,0x3b,0x0b,0x69,0x14,0x3b,0x0c,0x5b,0x06,0x69,0x08,0x6f,0x3b,0x0a,0x07,0x3b,0x0b,0x69,0x18,0x3b,0x0c,0x5b,0x00,0x6f,0x3b,0x0a,0x07,0x3b,0x0b,0x69,0x2a,0x3b,0x0c,0x5b,0x00,0x6f,0x3b,0x0a,0x07,0x3b,0x0b,0x69,0x00,0x3b,0x0c,0x5b,0x00))
  205(-1,bytes(0x04,0x08,0x6f,0x3a,0x13,0x52,0x50,0x47,0x3a,0x3a,0x4d,0x6f,0x76,0x65,0x52,0x6f,0x75,0x74,0x65,0x09,0x3a,0x0c,0x40,0x72,0x65,0x70,0x65,0x61,0x74,0x46,0x3a,0x0f,0x40,0x73,0x6b,0x69,0x70,0x70,0x61,0x62,0x6c,0x65,0x54,0x3a,0x0a,0x40,0x77,0x61,0x69,0x74,0x54,0x3a,0x0a,0x40,0x6c,0x69,0x73,0x74,0x5b,0x07,0x6f,0x3a,0x15,0x52,0x50,0x47,0x3a,0x3a,0x4d,0x6f,0x76,0x65,0x43,0x6f,0x6d,0x6d,0x61,0x6e,0x64,0x07,0x3a,0x0a,0x40,0x63,0x6f,0x64,0x65,0x69,0x11,0x3a,0x10,0x40,0x70,0x61,0x72,0x61,0x6d,0x65,0x74,0x65,0x72,0x73,0x5b,0x00,0x6f,0x3b,0x0a,0x07,0x3b,0x0b,0x69,0x00,0x3b,0x0c,0x5b,0x00))
  250(bytes(0x04,0x08,0x6f,0x3a,0x0c,0x52,0x50,0x47,0x3a,0x3a,0x53,0x45,0x08,0x3a,0x0a,0x40,0x6e,0x61,0x6d,0x65,0x49,0x22,0x09,0x4d,0x6f,0x76,0x65,0x06,0x3a,0x06,0x45,0x54,0x3a,0x0b,0x40,0x70,0x69,0x74,0x63,0x68,0x69,0x69,0x3a,0x0c,0x40,0x76,0x6f,0x6c,0x75,0x6d,0x65,0x69,0x55))
  TeleportPlayer(0,311,5,37,0,0)
  0()



EVENT   4
 PAGE   1
  250(bytes(0x04,0x08,0x6f,0x3a,0x0c,0x52,0x50,0x47,0x3a,0x3a,0x53,0x45,0x08,0x3a,0x0a,0x40,0x6e,0x61,0x6d,0x65,0x49,0x22,0x09,0x4d,0x6f,0x76,0x65,0x06,0x3a,0x06,0x45,0x54,0x3a,0x0b,0x40,0x70,0x69,0x74,0x63,0x68,0x69,0x69,0x3a,0x0c,0x40,0x76,0x6f,0x6c,0x75,0x6d,0x65,0x69,0x55))
  TeleportPlayer(0,195,38,19,0,0)
  0()



EVENT   5
 PAGE   1
  250(bytes(0x04,0x08,0x6f,0x3a,0x0c,0x52,0x50,0x47,0x3a,0x3a,0x53,0x45,0x08,0x3a,0x0a,0x40,0x6e,0x61,0x6d,0x65,0x49,0x22,0x09,0x4d,0x6f,0x76,0x65,0x06,0x3a,0x06,0x45,0x54,0x3a,0x0b,0x40,0x70,0x69,0x74,0x63,0x68,0x69,0x69,0x3a,0x0c,0x40,0x76,0x6f,0x6c,0x75,0x6d,0x65,0x69,0x55))
  TeleportPlayer(0,195,38,19,0,0)
  0()



EVENT   6
 PAGE   1
  250(bytes(0x04,0x08,0x6f,0x3a,0x0c,0x52,0x50,0x47,0x3a,0x3a,0x53,0x45,0x08,0x3a,0x0a,0x40,0x6e,0x61,0x6d,0x65,0x49,0x22,0x09,0x4d,0x6f,0x76,0x65,0x06,0x3a,0x06,0x45,0x54,0x3a,0x0b,0x40,0x70,0x69,0x74,0x63,0x68,0x69,0x69,0x3a,0x0c,0x40,0x76,0x6f,0x6c,0x75,0x6d,0x65,0x69,0x55))
  TeleportPlayer(0,195,38,19,0,0)
  0()



EVENT   7
 PAGE   1
  250(bytes(0x04,0x08,0x6f,0x3a,0x0c,0x52,0x50,0x47,0x3a,0x3a,0x53,0x45,0x08,0x3a,0x0a,0x40,0x6e,0x61,0x6d,0x65,0x49,0x22,0x09,0x4d,0x6f,0x76,0x65,0x06,0x3a,0x06,0x45,0x54,0x3a,0x0b,0x40,0x70,0x69,0x74,0x63,0x68,0x69,0x69,0x3a,0x0c,0x40,0x76,0x6f,0x6c,0x75,0x6d,0x65,0x69,0x55))
  TeleportPlayer(0,195,38,19,0,0)
  0()



EVENT   8
 PAGE   1
  ShowMessageFace("",0,0,2,1)
  ShowMessage("\\n<Storehouse Keeper>This is where we store the village's supplies. The excess stock is free to be sold to merchants and travelers.")
  Shop(0,1,0,0,false)
  605(0,13,0,0)
  605(0,17,0,0)
  605(0,51,0,0)
  605(0,55,0,0)
  605(0,59,0,0)
  605(2,1050,0,0)
  605(2,1081,0,0)
  605(2,1085,0,0)
  605(2,1147,0,0)
  If(1,1005,0,9,0)
   If(0,2065,0)
    If(4,66,0)
     ShowMessageFace("vgirl_fc1",0,0,2,2)
     ShowMessage("\\n<Vanilla>Hello, my name is Vanilla. I'm a merchant, and I would like to sell the three kinds of magical stones in my shop...")
     ShowMessageFace("",0,0,2,3)
     ShowMessage("\\n<Storehouse Keeper>Oh, what a cute shopkeeper we have here, but don't expect me to go easy on you when we get down to business.")
     ShowMessageFace("",0,0,2,4)
     ShowMessage("Vanilla negotiates an arrangement with the Storehouse Keeper. The business experience she's gained so far really shows.")
     ShowMessageFace("",0,0,2,5)
     ShowMessage("\\n<Storehouse Keeper>Good, I have no objections to those terms. You can retrieve your goods from there.")
     ShowMessageFace("vgirl_fc1",0,0,2,6)
     ShowMessage("\\n<Vanilla>Thank you very much! I look forward to dealing with you more in the future!")
     249(bytes(0x04,0x08,0x6f,0x3a,0x0c,0x52,0x50,0x47,0x3a,0x3a,0x4d,0x45,0x08,0x3a,0x0a,0x40,0x6e,0x61,0x6d,0x65,0x49,0x22,0x0c,0x66,0x61,0x6e,0x66,0x61,0x6c,0x65,0x06,0x3a,0x06,0x45,0x54,0x3a,0x0b,0x40,0x70,0x69,0x74,0x63,0x68,0x69,0x69,0x3a,0x0c,0x40,0x76,0x6f,0x6c,0x75,0x6d,0x65,0x69,0x69))
     ShowMessageFace("",0,0,2,7)
     ShowMessage("Vanilla can now sell Fire Stones, Ice Stones, and Thunder Stones at her shop!")
     ChangeVariable(1005,1005,0,0,10)
     ChangeSwitch(2065,2065,1)
     Wait(60)
     EndEventProcessing()
     0()
    EndIf()
    0()
   EndIf()
   0()
  EndIf()
  0()



EVENT   9
 PAGE   1
  250(bytes(0x04,0x08,0x6f,0x3a,0x0c,0x52,0x50,0x47,0x3a,0x3a,0x53,0x45,0x08,0x3a,0x0a,0x40,0x6e,0x61,0x6d,0x65,0x49,0x22,0x09,0x4d,0x6f,0x76,0x65,0x06,0x3a,0x06,0x45,0x54,0x3a,0x0b,0x40,0x70,0x69,0x74,0x63,0x68,0x69,0x69,0x3a,0x0c,0x40,0x76,0x6f,0x6c,0x75,0x6d,0x65,0x69,0x55))
  TeleportPlayer(0,195,38,19,0,0)
  0()



EVENT   10
 PAGE   1
  ShowMessageFace("",0,0,2,1)
  ShowMessage("\\n<Youth>This is Rostrum Village. Home to the legendary chef Alfonso...and not much else.")
  281(1)
  ShowChoices(strings("Inn","Item Shop","Nowhere"),3)
  IfPlayerPicksChoice(0,null)
   TeleportPlayer(0,310,22,10,0,0)
   EndEventProcessing()
   0()
  IfPlayerPicksChoice(1,null)
   TeleportPlayer(0,310,32,6,0,0)
   EndEventProcessing()
   0()
  IfPlayerPicksChoice(2,null)
   EndEventProcessing()
   0()
  404()
  0()



EVENT   11
 PAGE   1
  ChangeSelfSwitch("A",0)
  ShowMessageFace("ruka_fc1",0,0,2,1)
  ShowMessage("\\n<Luka>This is where Rostrum Village is supposed to be... but it isn't destroyed...")
  If(0,4,0)
   ShowMessageFace("alice_fc5",0,0,2,2)
   ShowMessage("\\n<Alice>So that means we've gone back at least 20 years in the past?")
   0()
  EndIf()
  If(0,5,0)
   ShowMessageFace("iriasu_fc4",7,0,2,3)
   ShowMessage("\\n<Ilias>So we have traveled back 20 or more years...")
   0()
  EndIf()
  205(-1,bytes(0x04,0x08,0x6f,0x3a,0x13,0x52,0x50,0x47,0x3a,0x3a,0x4d,0x6f,0x76,0x65,0x52,0x6f,0x75,0x74,0x65,0x09,0x3a,0x0c,0x40,0x72,0x65,0x70,0x65,0x61,0x74,0x46,0x3a,0x0f,0x40,0x73,0x6b,0x69,0x70,0x70,0x61,0x62,0x6c,0x65,0x46,0x3a,0x0a,0x40,0x77,0x61,0x69,0x74,0x54,0x3a,0x0a,0x40,0x6c,0x69,0x73,0x74,0x5b,0x07,0x6f,0x3a,0x15,0x52,0x50,0x47,0x3a,0x3a,0x4d,0x6f,0x76,0x65,0x43,0x6f,0x6d,0x6d,0x61,0x6e,0x64,0x07,0x3a,0x0a,0x40,0x63,0x6f,0x64,0x65,0x69,0x18,0x3a,0x10,0x40,0x70,0x61,0x72,0x61,0x6d,0x65,0x74,0x65,0x72,0x73,0x5b,0x00,0x6f,0x3b,0x0a,0x07,0x3b,0x0b,0x69,0x00,0x3b,0x0c,0x5b,0x00))
  ShowMessageFace("",0,0,2,4)
  ShowMessage("\\n<Youth>Oh, hey Marcellus. You must really like our village to come back a third time.")
  ShowSpeechBalloon(-1,1,false)
  ShowMessageFace("ruka_fc1",0,0,2,5)
  ShowMessage("\\n<Luka>Huh!?")
  ShowMessageFace("",0,0,2,6)
  ShowMessage("\\n<Youth>But man, you seem different every time I see you. I think you've even shrunk a bit this time...")
  ShowMessageFace("ruka_fc1",0,0,2,7)
  ShowMessage("\\n<Luka>You, you're mistaken... Marcellus is my father!")
  ShowMessageFace("",0,0,2,8)
  ShowMessage("\\n<Youth>Eh? What are you talking about? Wait, you're really not Marcellus?")
  ShowMessageFace("",0,0,2,9)
  ShowMessage("\\n<Youth>He's not nearly old enough to have a kid your age though. You do look very similar to him though.")
  If(4,41,0)
   ShowMessageFace("stein_fc2",0,0,2,10)
   ShowMessage("\\n<Promestein>Excuse me, but what year is it by the Johannes calendar?")
   ShowMessageFace("",0,0,2,11)
   ShowMessage("\\n<Youth>Well that's a strange thing to ask... It's the year 1430.")
   If(0,4,0)
    ShowMessageFace("alice_fc5",0,0,2,12)
    ShowMessage("\\n<Alice>So 25 years in the past then... The time when Luka's father was adventuring.")
    0()
   EndIf()
   If(0,5,0)
    ShowMessageFace("iriasu_fc4",2,0,2,13)
    ShowMessage("\\n<Ilias>So 25 years in the past then... The time when Luka's father was adventuring.")
    0()
   EndIf()
   0()
  EndIf()
  ShowMessageFace("ruka_fc1",0,0,2,14)
  ShowMessage("\\n<Luka>When was my father, I mean Marcellus, here in this village?")
  ShowMessageFace("",0,0,2,15)
  ShowMessage("\\n<Youth>The first time was about a month ago. He had three companions with him, and it seemed like he was a promising new hero.")
  ShowMessageFace("",0,0,2,16)
  ShowMessage("\\n<Youth>The second time was barely a week after that. He was alone then and seemed like a completely different person.")
  ShowMessageFace("ruka_fc1",0,0,2,17)
  ShowMessage("\\n<Luka>He came back by himself a week later and seemed different? What was he like the second time?")
  ShowMessageFace("",0,0,2,18)
  ShowMessage("\\n<Youth>Like a seasoned veteran being haunted by demons...")
  ShowMessageFace("",0,0,2,19)
  ShowMessage("\\n<Youth>It was weird to see him changed so much after only a week. I mean, what could have possibly happened in that short of a time?")
  If(0,4,0)
   ShowMessageFace("alice_fc5",3,0,2,20)
   ShowMessage("\\n<Alice>He was a fresh adventurer with his companions and then completely different a week later...")
   ShowMessageFace("alice_fc5",0,0,2,21)
   ShowMessage("\\n<Alice>That's definitely a strange story. We should try asking the other villagers for more information.")
   0()
  EndIf()
  If(0,5,0)
   ShowMessageFace("iriasu_fc4",7,0,2,22)
   ShowMessage("\\n<Ilias>He was a fresh adventurer with his companions and then completely different a week later...")
   ShowMessageFace("iriasu_fc4",7,0,2,23)
   ShowMessage("\\n<Ilias>That is indeed a strange story. Let's try asking the other villagers for information.")
   0()
  EndIf()
  If(4,64,0)
   ShowMessageFace("pramia_fc1",0,0,2,24)
   ShowMessage("\\n<Teeny>I'm relieved that it isn't scary around here at least.")
   0()
  EndIf()
  If(4,79,0)
   ShowMessageFace("nuruko_fc1",0,0,2,25)
   ShowMessage("\\n<Nuruko>Kyu!")
   0()
  EndIf()
  0()
 PAGE   2
  // condition: self-switch A is ON
  0()

EVENT   12
 PAGE   1
  ShowMessageFace("",0,0,2,1)
  ShowMessage("\\n<Man>Hey, it's the hero Marcellus...\nOh, you're not?\nYeah, he's only been here twice, but I remember him clearly.")
  ShowMessageFace("",0,0,2,2)
  ShowMessage("\\n<Man>The first time, he looked totally fresh. He was a caring young hero with his companions in tow.")
  ShowMessageFace("",0,0,2,3)
  ShowMessage("\\n<Man>He said they were traveling the world to help people in trouble. They stayed one night in our village and left full of energy.")
  ShowMessageFace("",0,0,2,4)
  ShowMessage("\\n<Man>But man... A week later he came back by himself and seemed like he had seen a lot of carnage.")
  ShowMessageFace("",0,0,2,5)
  ShowMessage("\\n<Man>Outwardly he looked the same, but it was like he was a totally different person on the inside. People usually don't change that much in ten years, let alone one week...")
  ShowMessageFace("",0,0,2,6)
  ShowMessage("\\n<Man>I bet it had something to do with exploring Tartarus, but I was way too scared to ask him about it.")
  If(2,"A",1)
   ChangeSelfSwitch("A",0)
   If(0,4,0)
    ShowMessageFace("alice_fc6",0,0,2,7)
    ShowMessage("\\n<Alice>He said he was going to explore Tartarus? What on earth for...")
    0()
   EndIf()
   If(0,5,0)
    ShowMessageFace("iriasu_fc4",2,0,2,8)
    ShowMessage("\\n<Ilias>He was exploring Tartarus? What on earth for...")
    0()
   EndIf()
   If(0,6,0)
    ShowMessageFace("sonia_fc1",2,0,2,9)
    ShowMessage("\\n<Sonya>It's not that important and I feel awkward for asking, but what was the female priestess that he was with like?")
    ShowMessageFace("",0,0,2,10)
    ShowMessage("\\n<Man>Haha... well, let's just say her clothes didn't leave much to the imagination.")
    ShowMessageFace("sonia_fc3",2,0,2,11)
    ShowMessage("\\n<Sonya>HUH!?")
    0()
   EndIf()
   0()
  EndIf()
  0()



EVENT   13
 PAGE   1
  ShowMessageFace("",0,0,2,1)
  ShowMessage("\\n<Village Girl>Oh yes, Marcellus...\nHe had such innocent eyes the first time he came to our village.")
  ShowMessageFace("",0,0,2,2)
  ShowMessage("\\n<Village Girl>The second time, he looked more like a monster.\nI would love to help soothe whatever ails him...")
  ShowMessageFace("ruka_fc1",0,0,2,3)
  ShowMessage("\\n<Luka>Y-you can't do that! Marcellus is my father!")
  If(0,4,0)
   ShowMessageFace("alice_fc5",0,0,2,4)
   ShowMessage("\\n<Alice>Calm down, Luka. We're 25 years in the past. You haven't even been born yet.")
   ShowMessageFace("alice_fc5",0,0,2,5)
   ShowMessage("\\n<Alice>The young hero Marcellus was still early in his adventuring days and wasn't your father yet.")
   0()
  EndIf()
  If(0,5,0)
   ShowMessageFace("iriasu_fc4",0,0,2,6)
   ShowMessage("\\n<Ilias>Calm down, Luka. This is 25 years in the past, before you were ever born.")
   ShowMessageFace("iriasu_fc4",0,0,2,7)
   ShowMessage("\\n<Ilias>The young hero Marcellus was still early in his adventuring days and was not your father yet.")
   0()
  EndIf()
  0()



EVENT   14
 PAGE   1
  ShowMessageFace("",0,0,2,1)
  ShowMessage("\\n<Gruff Man>I didn't catch much of the hero, but I do remember the warrior who was with him. Funny enough, I thought he looked like bad news at first...")
  ShowMessageFace("",0,0,2,2)
  ShowMessage("\\n<Gruff Man>I ran into him at the bar that night and struck up a conversation though. He was actually an interesting guy. We ended up drinking together until the sun came up.")
  ShowMessageFace("",0,0,2,3)
  ShowMessage("\\n<Gruff Man>...it's a shame that bar went out of business since then.")
  355("actor_label_jump")
  EndEventProcessing()
  DefineLabel("75")
  ShowMessageFace("hituzi_fc1",2,0,2,4)
  ShowMessage("\\n<Mary>There's no bar here now? What a backwater...")
  If(4,74,0)
   ShowMessageFace("usagi_fc1",0,0,2,5)
   ShowMessage("\\n<Barbun>Mary, are you sober for once?")
   ShowMessageFace("hituzi_fc1",1,0,2,6)
   ShowMessage("\\n<Mary>To everyone's surprise, I ran out of alcohol...")
   0()
  EndIf()
  EndEventProcessing()
  0()



EVENT   15
 PAGE   1
  ShowMessageFace("",0,0,2,1)
  ShowMessage("\\n<Woman>Marcellus... Ah, the young hero who came here twice. I was away the first time he visited so I only saw him the second time.")
  ShowMessageFace("",0,0,2,2)
  ShowMessage("\\n<Woman>He was certainly young, but the look in his eyes was fierce. I have no idea what kinds of hell he must have gone through...")
  ShowMessageFace("",0,0,2,3)
  ShowMessage("\\n<Woman>My friends said he looked like a kind, novice hero when they saw him the week before, but I find that hard to believe.")
  ShowMessageFace("",0,0,2,4)
  ShowMessage("\\n<Woman>Speaking of him, he handed a letter to the village chief when he was here the second time. He told the chief to give the letter to someone or other whenever they showed up here...")
  If(0,4,0)
   ShowMessageFace("alice_fc5",0,0,2,5)
   ShowMessage("\\n<Alice>Marcellus gave the village chief a letter? We have to go see what that's about.")
   0()
  EndIf()
  If(0,5,0)
   ShowMessageFace("iriasu_fc4",7,0,2,6)
   ShowMessage("\\n<Ilias>Marcellus gave the village chief a letter? We need to confirm this for ourselves.")
   0()
  EndIf()
  0()



EVENT   16
 PAGE   1
  ShowMessageFace("",0,0,2,1)
  ShowMessage("\\n<Female Farmer>It's rare for a hero to show up multiple times to this remote village. We aren't exactly famous for anything.")
  355("actor_label_jump")
  EndEventProcessing()
  DefineLabel("73")
  ShowMessageFace("hiru_fc1",0,0,2,2)
  ShowMessage("\\n<Hiru>Quiet, peaceful villages are nicer than famous ones. It'd be perfect if only it were a bit more humid...")
  EndEventProcessing()
  0()



EVENT   17
 PAGE   1
  ShowMessageFace("",0,0,2,1)
  ShowMessage("\\n<Youth>Mmm, strawberries stolen from the storehouse... Oh crap, busted...")
  ShowMessageFace("",0,0,2,2)
  ShowMessage("\\n<Youth>Here, take this and keep it a secret.")
  250(bytes(0x04,0x08,0x6f,0x3a,0x0c,0x52,0x50,0x47,0x3a,0x3a,0x53,0x45,0x08,0x3a,0x0a,0x40,0x6e,0x61,0x6d,0x65,0x49,0x22,0x0a,0x49,0x74,0x65,0x6d,0x31,0x06,0x3a,0x06,0x45,0x54,0x3a,0x0b,0x40,0x70,0x69,0x74,0x63,0x68,0x69,0x69,0x3a,0x0c,0x40,0x76,0x6f,0x6c,0x75,0x6d,0x65,0x69,0x55))
  ChangeSelfSwitch("A",0)
  ChangeInventory_Item(32,0,0,1)
  355("actor_label_jump")
  EndEventProcessing()
  DefineLabel("70")
  ShowMessageFace("nezumi_fc1",1,0,2,3)
  ShowMessage("\\n<Ratty>I'll go steal something too...\nThere's no cheese? Never mind.")
  EndEventProcessing()
  0()
 PAGE   2
  // condition: self-switch A is ON
  ShowMessageFace("",0,0,2,1)
  ShowMessage("\\n<Youth>Mmm, strawberries stolen from the storehouse... Crap, did you hear me?!")
  0()



EVENT   18
 PAGE   1
  ShowMessageFace("",0,0,2,1)
  ShowMessage("\\n<Female Farmer>This is Alfonso's field. After retiring from being a chef, he returned to his hometown here to relax and grow vegetables.")
  ShowMessageFace("",0,0,2,2)
  ShowMessage("\\n<Female Farmer>His house is southeast of the inn. Drop by and I'm sure he'll throw together something simple for you.")
  355("actor_label_jump")
  EndEventProcessing()
  DefineLabel("5")
  ShowMessageFace("alice_fc5",1,0,2,3)
  ShowMessage("\\n<Alice>Now you're talking!")
  EndEventProcessing()
  DefineLabel("26")
  ShowMessageFace("iriasu_fc4",0,0,2,4)
  ShowMessage("\\n<Ilias>Let us proceed with haste...\nTo gather information, of course.")
  EndEventProcessing()
  0()



EVENT   19
 PAGE   1
  ShowMessageFace("",0,0,2,1)
  ShowMessage("\\n<Man>Alfonso is truly a fine gentleman. Despite being hailed as a legendary chef, he never boasts about it at all.")
  ShowMessageFace("",0,0,2,2)
  ShowMessage("\\n<Man>He absolutely loves having guests over, too. You guys should pay him a visit.")
  0()



EVENT   20
 PAGE   1
  ShowMessageFace("",0,0,2,1)
  ShowMessage("\\n<Girl>Yay! Marcellus is back again! Hey, do you fashion a new look every time or what?")
  ShowMessageFace("",0,0,2,2)
  ShowMessage("\\n<Girl>'Definitely never go near the Tartarus rift.'\nThat's what the scary Marcellus who came the second time told me.")
  0()



EVENT   21
 PAGE   1
  ShowMessageFace("",0,0,2,1)
  ShowMessage("\\n<Traveling Warrior>The hero Marcellus? I met him once in Iliasburg.")
  ShowMessageFace("",0,0,2,2)
  ShowMessage("\\n<Traveling Warrior>I felt he was a friendly, talkative young hero with a promising future. He didn't look like someone you'd expect to see in a fight though.")
  If(0,6,0)
   ShowMessageFace("sonia_fc1",2,0,2,3)
   ShowMessage("\\n<Sonya>It's not that important and I feel awkward for asking, but what was the female priestess that he was with like?")
   ShowMessageFace("",0,0,2,4)
   ShowMessage("\\n<Traveling Warrior>...oooh, she looked like a total slut.")
   ShowMessageFace("sonia_fc3",2,0,2,5)
   ShowMessage("\\n<Sonya>WHAT!?")
   ShowMessageFace("",0,0,2,6)
   ShowMessage("\\n<Traveling Warrior>Her parents would be ashamed if they knew what she was wearing in broad daylight...")
   ShowMessageFace("sonia_fc3",2,0,2,7)
   ShowMessage("\\n<Sonya>So would her daughter!")
   0()
  EndIf()
  0()



EVENT   22
 PAGE   1
  ShowMessageFace("",0,0,2,1)
  ShowMessage("\\n<Guard>The hero Marcellus? I was off duty the first time he came so I missed him.")
  ShowMessageFace("",0,0,2,2)
  ShowMessage("\\n<Guard>I saw him from a distance the second time, though... He looked young but carried himself like a seasoned veteran.")
  ShowMessageFace("",0,0,2,3)
  ShowMessage("\\n<Guard>I believe he dropped by the chief's house after asking the villagers about Tartarus. You should ask the chief himself if you want to know more.")
  ShowMessageFace("",0,0,2,4)
  ShowMessage("\\n<Guard>The chief's house is right across from me.")
  0()



EVENT   23
 PAGE   1
  ShowMessageFace("",0,0,2,1)
  ShowMessage("\\n<Man>The cave through the mountains was blocked by a landslide from a recent earthquake. It's supposed to be a few months before they can clear the blockage...")
  ShowMessageFace("",0,0,2,2)
  ShowMessage("\\n<Man>The landslide happened a month ago, if I recall correctly. Actually, it was three days after Marcellus and his party left the village.")
  ShowMessageFace("",0,0,2,3)
  ShowMessage("\\n<Man>...huh? Wait, how'd he come here the second time we saw him then?")
  355("actor_label_jump")
  EndEventProcessing()
  DefineLabel("71")
  ShowMessageFace("okami_fc1",0,0,2,4)
  ShowMessage("\\n<Amara>He must have swam here, right?")
  EndEventProcessing()
  0()



EVENT   24
 PAGE   1
  ShowMessageFace("",0,0,2,1)
  ShowMessage("\\n<Youth>It's impossible to pass through the mountain cave since the entrance on this side was blocked by a landslide a month ago. Most of the goods here are traded by ship so it won't cause much of an issue for us.")
  ShowMessageFace("",0,0,2,2)
  ShowMessage("\\n<Youth>It is a problem for travelers coming from Iliasburg though... Wait, how did you guys get here?")
  355("actor_label_jump")
  EndEventProcessing()
  DefineLabel("62")
  ShowMessageFace("gob_fc1",0,0,2,3)
  ShowMessage("\\n<Gob>That's a secret!")
  EndEventProcessing()
  DefineLabel("74")
  ShowMessageFace("usagi_fc1",0,0,2,4)
  ShowMessage("\\n<Barbun>You wouldn't believe us even if we told you.")
  EndEventProcessing()
  0()



EVENT   25
 PAGE   1
  250(bytes(0x04,0x08,0x6f,0x3a,0x0c,0x52,0x50,0x47,0x3a,0x3a,0x53,0x45,0x08,0x3a,0x0a,0x40,0x6e,0x61,0x6d,0x65,0x49,0x22,0x0a,0x49,0x74,0x65,0x6d,0x31,0x06,0x3a,0x06,0x45,0x54,0x3a,0x0b,0x40,0x70,0x69,0x74,0x63,0x68,0x69,0x69,0x3a,0x0c,0x40,0x76,0x6f,0x6c,0x75,0x6d,0x65,0x69,0x55))
  ChangeSelfSwitch("A",0)
  ChangeInventory_Item(310,0,0,1)
  0()
 PAGE   2
  // condition: self-switch A is ON
  0()



EVENT   26
 PAGE   1
  250(bytes(0x04,0x08,0x6f,0x3a,0x0c,0x52,0x50,0x47,0x3a,0x3a,0x53,0x45,0x08,0x3a,0x0a,0x40,0x6e,0x61,0x6d,0x65,0x49,0x22,0x0a,0x49,0x74,0x65,0x6d,0x31,0x06,0x3a,0x06,0x45,0x54,0x3a,0x0b,0x40,0x70,0x69,0x74,0x63,0x68,0x69,0x69,0x3a,0x0c,0x40,0x76,0x6f,0x6c,0x75,0x6d,0x65,0x69,0x55))
  ChangeSelfSwitch("A",0)
  ChangeInventory_Item(2,0,0,1)
  0()
 PAGE   2
  // condition: self-switch A is ON
  0()



EVENT   27
 PAGE   1
  250(bytes(0x04,0x08,0x6f,0x3a,0x0c,0x52,0x50,0x47,0x3a,0x3a,0x53,0x45,0x08,0x3a,0x0a,0x40,0x6e,0x61,0x6d,0x65,0x49,0x22,0x0a,0x49,0x74,0x65,0x6d,0x31,0x06,0x3a,0x06,0x45,0x54,0x3a,0x0b,0x40,0x70,0x69,0x74,0x63,0x68,0x69,0x69,0x3a,0x0c,0x40,0x76,0x6f,0x6c,0x75,0x6d,0x65,0x69,0x55))
  ChangeSelfSwitch("A",0)
  ChangeInventory_Item(79,0,0,1)
  0()
 PAGE   2
  // condition: self-switch A is ON
  0()



EVENT   28
 PAGE   1
  ShowMessageFace("",0,0,2,1)
  ShowMessage("\\n<Dog>Woof! Woof!")
  355("actor_label_jump")
  EndEventProcessing()
  DefineLabel("60")
  ShowMessageFace("dog_fc1",4,0,2,2)
  ShowMessage("\\n<Pochi>Woof! Woof!")
  EndEventProcessing()
  0()



EVENT   29
 PAGE   1
  ShowMessageFace("",0,0,2,1)
  ShowMessage("\\n<Dog>*Whimper* *whimper*")
  355("actor_label_jump")
  EndEventProcessing()
  DefineLabel("60")
  ShowMessageFace("dog_fc1",4,0,2,2)
  ShowMessage("\\n<Pochi>Woof woof...")
  EndEventProcessing()
  0()


